<svg width="48" height="45" viewBox="0 0 48 45" fill="none" xmlns="http://www.w3.org/2000/svg">
<path d="M44.5078 2.45312L25.7578 -5.35938C25.1719 -5.55469 24.5859 -5.65234 24 -5.65234C23.3164 -5.65234 22.7305 -5.55469 22.1445 -5.35938L3.39453 2.45312C1.63672 3.23438 0.5625 4.89453 0.5625 6.75C0.5625 26.1836 11.6953 39.5625 22.1445 43.957C23.3164 44.4453 24.5859 44.4453 25.7578 43.957C34.1562 40.4414 47.4375 28.4297 47.4375 6.75C47.4375 4.89453 46.2656 3.23438 44.5078 2.45312ZM39.918 13.5859L21.9492 31.5547C21.3633 32.2383 20.2891 32.2383 19.7031 31.5547L9.54688 21.3984C8.96094 20.8125 8.96094 19.8359 9.54688 19.25L11.793 17.0039C12.3789 16.418 13.3555 16.418 13.9414 17.0039L20.875 23.8398L35.5234 9.19141C36.1094 8.60547 37.0859 8.60547 37.6719 9.19141L39.918 11.4375C40.5039 12.0234 40.5039 13 39.918 13.5859Z" fill="white"/>
</svg>
