<svg width="50" height="38" viewBox="0 0 50 38" fill="none" xmlns="http://www.w3.org/2000/svg">
<path d="M3.125 40.625C3.125 42.3828 4.49219 43.75 6.25 43.75H21.875V28.125H3.125V40.625ZM28.125 43.75H43.75C45.4102 43.75 46.875 42.3828 46.875 40.625V28.125H28.125V43.75ZM46.875 12.5H42.6758C43.3594 11.3281 43.75 10.0586 43.75 8.59375C43.75 3.90625 39.8438 0 35.1562 0C31.0547 0 28.418 2.14844 25.0977 6.73828C21.6797 2.14844 19.043 0 15.0391 0C10.2539 0 6.44531 3.90625 6.44531 8.59375C6.44531 10.0586 6.73828 11.3281 7.42188 12.5H3.125C1.36719 12.5 0 13.9648 0 15.625V23.4375C0 24.3164 0.683594 25 1.5625 25H48.4375C49.2188 25 50 24.3164 50 23.4375V15.625C50 13.9648 48.5352 12.5 46.875 12.5ZM14.9414 12.5C12.793 12.5 11.0352 10.8398 11.0352 8.59375C11.0352 6.44531 12.793 4.6875 14.9414 4.6875C16.8945 4.6875 18.3594 5.07812 23.4375 12.5H14.9414ZM35.1562 12.5H26.6602C31.7383 5.07812 33.1055 4.6875 35.1562 4.6875C37.3047 4.6875 39.0625 6.44531 39.0625 8.59375C39.0625 10.8398 37.3047 12.5 35.1562 12.5Z" fill="white"/>
</svg>
