<svg id="Layer_2" data-name="Layer 2" xmlns="http://www.w3.org/2000/svg" width="118.542" height="90.147" viewBox="0 0 118.542 90.147">
  <g id="Layer_1" data-name="Layer 1">
    <path id="Path_1" data-name="Path 1" d="M132.754,1.431H127.9a10.06,10.06,0,0,0-9.645,0H113.4a1.045,1.045,0,0,0-1.028,1.218l2.19,12.958a1.572,1.572,0,0,0,1.067,1.231l6.414,2.052a3.386,3.386,0,0,0,2.069,0l6.41-2.052a1.559,1.559,0,0,0,1.067-1.231l2.194-12.958a1.041,1.041,0,0,0-1.028-1.218ZM128.866,10.2a.51.51,0,0,1-.354.41L123.865,12.1a2.626,2.626,0,0,1-1.589,0l-4.652-1.486a.527.527,0,0,1-.358-.41l-.523-3.149a.263.263,0,0,1,.337-.294l5.183,1.663a2.626,2.626,0,0,0,1.589,0l5.183-1.663a.259.259,0,0,1,.337.289Z" transform="translate(-63.827 -0.113)" fill="#1877f2"/>
    <path id="Path_2" data-name="Path 2" d="M217.995,23.682V13.665A13.575,13.575,0,0,0,204.411.09H179.6a4.527,4.527,0,0,0-4.527,4.527V56.2a4.527,4.527,0,0,0,4.527,4.527h24.814a13.58,13.58,0,0,0,13.584-13.6V37.257a6.79,6.79,0,0,0-6.79-6.79,6.786,6.786,0,0,0,6.79-6.786Zm-14.016,17.9a4.527,4.527,0,0,1-4.527,4.527h-9.9v-10.8h9.891a4.531,4.531,0,0,1,4.535,4.514ZM189.552,14.5h9.891a4.531,4.531,0,0,1,4.535,4.527v1.754a4.527,4.527,0,0,1-4.535,4.531h-9.891Z" transform="translate(-99.453 -0.051)" fill="#168eea"/>
    <path id="Path_3" data-name="Path 3" d="M134.91,48.4V85.649a2.263,2.263,0,0,1-2.263,2.263h-9.874a2.263,2.263,0,0,1-2.263-2.263V48.4a.523.523,0,0,1,.682-.5l5.723,1.831a2.561,2.561,0,0,0,1.589,0l5.723-1.831a.523.523,0,0,1,.682.5Z" transform="translate(-68.459 -27.201)" fill="#168eea"/>
    <path id="Path_4" data-name="Path 4" d="M42.886,20.892V13.55A13.567,13.567,0,0,0,29.319,0H13.567A13.567,13.567,0,0,0,0,13.567V47.14A13.571,13.571,0,0,0,13.567,60.711H29.319A13.571,13.571,0,0,0,42.886,47.14V39.8a2.259,2.259,0,0,0-2.259-2.22H31.211a2.263,2.263,0,0,0-2.272,2.242v1.728a4.522,4.522,0,0,1-4.522,4.522H18.91a4.522,4.522,0,0,1-4.522-4.535V18.927A4.522,4.522,0,0,1,18.91,14.4h5.516a4.522,4.522,0,0,1,4.514,4.522v1.965A2.268,2.268,0,0,0,31.2,23.156h9.416a2.263,2.263,0,0,0,2.268-2.263Z" fill="#168eea"/>
    <text id="KASSA" transform="translate(30.529 82.147)" fill="#168eea" font-size="15" font-family="Poppins-Regular, Poppins" letter-spacing="0.07em"><tspan x="0" y="0">KAS</tspan><tspan y="0" font-family="Poppins-SemiBold, Poppins" font-weight="600" letter-spacing="0.06em">S</tspan><tspan y="0">A</tspan></text>
  </g>
</svg>
